zhou_2020_hwpq.sim/sim_1/behav/xsim/tb_open_list_queue.vcd
$date
   Thu Aug  1 23:19:35 2024
$end

$version
  2024.1.1
  $dumpfile ("tb_open_list_queue.vcd") 
$end

$timescale
  1ps
$end

$scope module tb_open_list_queue $end
$var reg 1 ! CLK $end
$var reg 1 " RSTn $end
$var reg 1 # i_wrt $end
$var reg 1 $ i_read $end
$var reg 1 % i_valid $end
$var reg 32 & i_node_f [31:0] $end
$var reg 1 ' o_ready_deq $end
$var reg 1 ( o_ready_enq $end
$var reg 1 ) o_ready_rep $end
$var reg 1 * o_full $end
$var reg 1 + o_empty $end
$var reg 1 , o_valid $end
$var reg 32 - o_node_f [31:0] $end
$scope module u_open_list_queue $end
$var wire 1 . CLK $end
$var wire 1 / RSTn $end
$var wire 1 0 i_wrt $end
$var wire 1 1 i_read $end
$var wire 1 2 i_valid $end
$var wire 32 3 i_node_f [31:0] $end
$var reg 1 ( o_ready_deq $end
$var reg 1 ' o_ready_enq $end
$var reg 1 ) o_ready_rep $end
$var reg 1 * o_full $end
$var reg 1 + o_empty $end
$var reg 1 , o_valid $end
$var reg 32 - o_node_f [31:0] $end
$var reg 5 4 next_size [4:0] $end
$var reg 5 5 curr_size [4:0] $end
$var reg 256 6 inQueue [255:0] $end
$var reg 256 7 nextInQueue [255:0] $end
$var reg 256 8 outQueue [255:0] $end
$var reg 256 9 nextOutQueue [255:0] $end
$var reg 8 : inQueueValid [7:0] $end
$var reg 8 ; nextInQueueValid [7:0] $end
$var reg 8 < outQueueValid [7:0] $end
$var reg 8 = nextOutQueueValid [7:0] $end
$var reg 8 > lessThanPrevInQueue [7:0] $end
$var reg 8 ? lessThanNextInQueue [7:0] $end
$var reg 8 @ lessThanSameOutQueue [7:0] $end
$var reg 8 A lessThanNextOutQueue [7:0] $end
$var reg 8 B lessThanNextNextOutQueue [7:0] $end
$var integer 32 C i [31:0] $end
$var integer 32 D j [31:0] $end
$var reg 32 E curr_state $end
$var reg 32 F next_state $end
$upscope $end
$scope task write $end
$var reg 32 G i_data_f [31:0] $end
$upscope $end
$scope task read_and_check $end
$var reg 32 H expected_f [31:0] $end
$upscope $end
$upscope $end
$enddefinitions $end

#0
$dumpvars
0!
1"
0#
0$
0%
b0 &
1'
1(
1)
x*
x+
x,
bx -
0.
1/
00
01
02
b0 3
bx 4
bx 5
bx 6
bx11111111111111111111111111111111 7
bx 8
bx 9
bx :
bx0 ;
bx <
bx =
bx1 >
b1xxxxxxx ?
bx @
b1xxxxxxx A
b11xxxxxx B
bx C
b111 D
b0 E
b0 F
b0 G
b0 H
$end

#1000
0"
0/

#5000
1!
0*
1+
0,
b11111111111111111111111111111111 -
1.
b0 4
b0 5
b1111111111111111111111111111111111111111111111111111111111111111111111111111111111111111111111111111111111111111111111111111111111111111111111111111111111111111111111111111111111111111111111111111111111111111111111111111111111111111111111111111111111111111 6
b1111111111111111111111111111111111111111111111111111111111111111111111111111111111111111111111111111111111111111111111111111111111111111111111111111111111111111111111111111111111111111111111111111111111111111111111111111111111111111111111111111111111111111 7
b1111111111111111111111111111111111111111111111111111111111111111111111111111111111111111111111111111111111111111111111111111111111111111111111111111111111111111111111111111111111111111111111111111111111111111111111111111111111111111111111111111111111111111 8
b1111111111111111111111111111111111111111111111111111111111111111111111111111111111111111111111111111111111111111111111111111111111111111111111111111111111111111111111111111111111111111111111111111111111111111111111111111111111111111111111111111111111111111 9
b0 :
b0 ;
b0 <
b0 =
b1 >
b10000000 ?
b0 @
b10000000 A
b11000000 B
b1000 C
b111 D

#10000
0!
0.

#15000
1!
1.
b1000 C

#20000
0!
1"
0.
1/

#25000
1!
1#
1%
b101 &
0+
1.
10
12
b101 3
b1 4
b1111111111111111111111111111111111111111111111111111111111111111111111111111111111111111111111111111111111111111111111111111111111111111111111111111111111111111111111111111111111111111111111111111111111111111111111111111111100000000000000000000000000000101 9
b1 =
b0 >
b10000000 ?
b10000000 A
b11000000 B
b111 D
b101 G

#30000
0!
0.

#35000
1!
0#
0+
1,
b101 -
1.
00
b1 4
b1 5
b1111111111111111111111111111111111111111111111111111111111111111111111111111111111111111111111111111111111111111111111111111111111111111111111111111111111111111111111111111111111111111111111111111111111111111111111111111111100000000000000000000000000000101 8
b1111111111111111111111111111111111111111111111111111111111111111111111111111111111111111111111111111111111111111111111111111111111111111111111111111111111111111111111111111111111111111111111111111111111111111111111111111111100000000000000000000000000000101 9
b1 <
b1 =
b1 >
b10000000 ?
b10000000 A
b11000000 B
b111 D

#40000
0!
0.

#45000
1!
1#
b10 &
1.
10
b10 3
b10 4
b1111111111111111111111111111111111111111111111111111111111111111111111111111111111111111111111111111111111111111111111111111111111111111111111111111111111111111111111111111111111111111111111111111111111111111111111111111111100000000000000000000000000000101 7
b1111111111111111111111111111111111111111111111111111111111111111111111111111111111111111111111111111111111111111111111111111111111111111111111111111111111111111111111111111111111111111111111111111111111111111111111111111111100000000000000000000000000000010 9
b1 ;
b0 >
b10000000 ?
b10000000 A
b11000000 B
b111 D
b10 G

#50000
0!
0.

#55000
1!
0#
b10 -
1.
00
b10 4
b10 5
b1111111111111111111111111111111111111111111111111111111111111111111111111111111111111111111111111111111111111111111111111111111111111111111111111111111111111111111111111111111111111111111111111111111111111111111111111111111100000000000000000000000000000101 6
b1111111111111111111111111111111111111111111111111111111111111111111111111111111111111111111111111111111111111111111111111111111111111111111111111111111111111111111111111111111111111111111111111111111111111111111111111111111111111111111111111111111111111111 7
b1111111111111111111111111111111111111111111111111111111111111111111111111111111111111111111111111111111111111111111111111111111111111111111111111111111111111111111111111111111111111111111111111111111111111111111111111111111100000000000000000000000000000010 8
b1111111111111111111111111111111111111111111111111111111111111111111111111111111111111111111111111111111111111111111111111111111111111111111111111111111111111111111111111111111111111111111111110000000000000000000000000000010100000000000000000000000000000010 9
b1 :
b0 ;
b11 =
b1 >
b10000001 ?
b10000001 A
b11000001 B
b111 D

#60000
0!
0.

#65000
1!
1#
b1011 &
1.
10
b1011 3
b11 4
b1111111111111111111111111111111111111111111111111111111111111111111111111111111111111111111111111111111111111111111111111111111111111111111111111111111111111111111111111111111111111111111111111111111111111111111111111111111111111111111111111111111111111111 6
b1111111111111111111111111111111111111111111111111111111111111111111111111111111111111111111111111111111111111111111111111111111111111111111111111111111111111111111111111111111111111111111111111111111111111111111111111111111100000000000000000000000000001011 7
b1111111111111111111111111111111111111111111111111111111111111111111111111111111111111111111111111111111111111111111111111111111111111111111111111111111111111111111111111111111111111111111111110000000000000000000000000000010100000000000000000000000000000010 8
b1111111111111111111111111111111111111111111111111111111111111111111111111111111111111111111111111111111111111111111111111111111111111111111111111111111111111111111111111111111111111111111111110000000000000000000000000000010100000000000000000000000000000010 9
b0 :
b1 ;
b11 <
b11 =
b0 >
b10000000 ?
b10000000 A
b11000000 B
b111 D
b1011 G

#70000
0!
0.

#75000
1!
0#
1.
00
b11 4
b11 5
b1111111111111111111111111111111111111111111111111111111111111111111111111111111111111111111111111111111111111111111111111111111111111111111111111111111111111111111111111111111111111111111111111111111111111111111111111111111100000000000000000000000000001011 6
b1111111111111111111111111111111111111111111111111111111111111111111111111111111111111111111111111111111111111111111111111111111111111111111111111111111111111111111111111111111111111111111111110000000000000000000000000000101111111111111111111111111111111111 7
b1 :
b10 ;
b1 >
b10000001 ?
b10000000 A
b11000001 B
b111 D

#80000
0!
0.

#85000
1!
1#
b1110 &
1.
10
b1110 3
b100 4
b1111111111111111111111111111111111111111111111111111111111111111111111111111111111111111111111111111111111111111111111111111111111111111111111111111111111111111111111111111111111111111111111110000000000000000000000000000101111111111111111111111111111111111 6
b1111111111111111111111111111111111111111111111111111111111111111111111111111111111111111111111111111111111111111111111111111111111111111111111111111111111111111111111111111111111111111111111111111111111111111111111111111111100000000000000000000000000001110 7
b1111111111111111111111111111111111111111111111111111111111111111111111111111111111111111111111111111111111111111111111111111111111111111111111111111111111111111000000000000000000000000000010110000000000000000000000000000010100000000000000000000000000000010 9
b10 :
b1 ;
b111 =
b10 >
b10000010 ?
b10000010 A
b11000010 B
b111 D
b1110 G

#90000
0!
0.

#95000
1!
0#
1.
00
b100 4
b100 5
b1111111111111111111111111111111111111111111111111111111111111111111111111111111111111111111111111111111111111111111111111111111111111111111111111111111111111111111111111111111111111111111111111111111111111111111111111111111100000000000000000000000000001110 6
b1111111111111111111111111111111111111111111111111111111111111111111111111111111111111111111111111111111111111111111111111111111111111111111111111111111111111111111111111111111111111111111111110000000000000000000000000000111011111111111111111111111111111111 7
b1111111111111111111111111111111111111111111111111111111111111111111111111111111111111111111111111111111111111111111111111111111111111111111111111111111111111111000000000000000000000000000010110000000000000000000000000000010100000000000000000000000000000010 8
b1111111111111111111111111111111111111111111111111111111111111111111111111111111111111111111111111111111111111111111111111111111111111111111111111111111111111111000000000000000000000000000010110000000000000000000000000000010100000000000000000000000000000010 9
b1 :
b10 ;
b111 <
b111 =
b1 >
b10000001 ?
b10000000 A
b11000000 B
b111 D

#100000
0!
0.

#105000
1!
1#
b1010 &
1.
10
b1010 3
b101 4
b1111111111111111111111111111111111111111111111111111111111111111111111111111111111111111111111111111111111111111111111111111111111111111111111111111111111111111111111111111111111111111111111110000000000000000000000000000111011111111111111111111111111111111 6
b1111111111111111111111111111111111111111111111111111111111111111111111111111111111111111111111111111111111111111111111111111111111111111111111111111111111111111000000000000000000000000000011101111111111111111111111111111111100000000000000000000000000001010 7
b10 :
b101 ;
b10 >
b10000010 ?
b10000000 A
b11000010 B
b111 D
b1010 G

#110000
0!
0.

#115000
1!
0#
1.
00
b101 4
b101 5
b1111111111111111111111111111111111111111111111111111111111111111111111111111111111111111111111111111111111111111111111111111111111111111111111111111111111111111000000000000000000000000000011101111111111111111111111111111111100000000000000000000000000001010 6
b1111111111111111111111111111111111111111111111111111111111111111111111111111111111111111111111111111111111111111111111111111111111111111111111111111111111111111111111111111111111111111111111110000000000000000000000000000101011111111111111111111111111111111 7
b1111111111111111111111111111111111111111111111111111111111111111111111111111111111111111111111111111111111111111111111111111111100000000000000000000000000001110000000000000000000000000000010110000000000000000000000000000010100000000000000000000000000000010 9
b101 :
b10 ;
b1111 =
b101 >
b10000101 ?
b10000100 A
b11000101 B
b111 D

#120000
0!
0.

#125000
1!
1#
b11 &
1.
10
b11 3
b110 4
b1111111111111111111111111111111111111111111111111111111111111111111111111111111111111111111111111111111111111111111111111111111111111111111111111111111111111111111111111111111111111111111111110000000000000000000000000000101011111111111111111111111111111111 6
b1111111111111111111111111111111111111111111111111111111111111111111111111111111111111111111111111111111111111111111111111111111111111111111111111111111111111111000000000000000000000000000010111111111111111111111111111111111100000000000000000000000000000011 7
b1111111111111111111111111111111111111111111111111111111111111111111111111111111111111111111111111111111111111111111111111111111100000000000000000000000000001110000000000000000000000000000010110000000000000000000000000000010100000000000000000000000000000010 8
b1111111111111111111111111111111111111111111111111111111111111111111111111111111111111111111111111111111111111111111111111111111100000000000000000000000000001110000000000000000000000000000010100000000000000000000000000000010100000000000000000000000000000010 9
b10 :
b101 ;
b1111 <
b1111 =
b10 >
b10000010 ?
b10000010 A
b11000010 B
b111 D
b11 G

#130000
0!
0.

#135000
1!
0#
1.
00
b110 4
b110 5
b1111111111111111111111111111111111111111111111111111111111111111111111111111111111111111111111111111111111111111111111111111111111111111111111111111111111111111000000000000000000000000000010111111111111111111111111111111111100000000000000000000000000000011 6
b1111111111111111111111111111111111111111111111111111111111111111111111111111111111111111111111111111111111111111111111111111111100000000000000000000000000001110111111111111111111111111111111110000000000000000000000000000010111111111111111111111111111111111 7
b1111111111111111111111111111111111111111111111111111111111111111111111111111111111111111111111111111111111111111111111111111111100000000000000000000000000001110000000000000000000000000000010100000000000000000000000000000010100000000000000000000000000000010 8
b1111111111111111111111111111111111111111111111111111111111111111111111111111111111111111111111111111111111111111111111111111111100000000000000000000000000001011000000000000000000000000000010100000000000000000000000000000001100000000000000000000000000000010 9
b101 :
b1010 ;
b101 >
b10000101 ?
b10000101 A
b11000101 B
b111 D

#140000
0!
0.

#145000
1!
1#
b111 &
1.
10
b111 3
b111 4
b1111111111111111111111111111111111111111111111111111111111111111111111111111111111111111111111111111111111111111111111111111111100000000000000000000000000001110111111111111111111111111111111110000000000000000000000000000010111111111111111111111111111111111 6
b1111111111111111111111111111111111111111111111111111111111111111111111111111111111111111111111111111111111111111111111111111111111111111111111111111111111111111000000000000000000000000000010101111111111111111111111111111111100000000000000000000000000000111 7
b1111111111111111111111111111111111111111111111111111111111111111111111111111111111111111111111111111111111111111111111111111111100000000000000000000000000001011000000000000000000000000000010100000000000000000000000000000001100000000000000000000000000000010 8
b1111111111111111111111111111111111111111111111111111111111111111111111111111111111111111111111110000000000000000000000000000111000000000000000000000000000001011000000000000000000000000000001010000000000000000000000000000001100000000000000000000000000000010 9
b1010 :
b101 ;
b11111 =
b1010 >
b10001010 ?
b10001010 A
b11001010 B
b111 D
b111 G

#150000
0!
0.

#155000
1!
0#
1.
00
b111 4
b111 5
b1111111111111111111111111111111111111111111111111111111111111111111111111111111111111111111111111111111111111111111111111111111111111111111111111111111111111111000000000000000000000000000010101111111111111111111111111111111100000000000000000000000000000111 6
b1111111111111111111111111111111111111111111111111111111111111111111111111111111111111111111111111111111111111111111111111111111100000000000000000000000000001011111111111111111111111111111111110000000000000000000000000000011111111111111111111111111111111111 7
b1111111111111111111111111111111111111111111111111111111111111111111111111111111111111111111111110000000000000000000000000000111000000000000000000000000000001011000000000000000000000000000001010000000000000000000000000000001100000000000000000000000000000010 8
b1111111111111111111111111111111111111111111111111111111111111111111111111111111111111111111111110000000000000000000000000000111000000000000000000000000000001010000000000000000000000000000001010000000000000000000000000000001100000000000000000000000000000010 9
b101 :
b1010 ;
b11111 <
b11111 =
b101 >
b10000101 ?
b10000100 A
b11000100 B
b111 D

#160000
0!
0.

#165000
1!
1#
b1 &
1*
1.
10
b1 3
b1000 4
b1111111111111111111111111111111111111111111111111111111111111111111111111111111111111111111111111111111111111111111111111111111100000000000000000000000000001011111111111111111111111111111111110000000000000000000000000000011111111111111111111111111111111111 6
b1111111111111111111111111111111111111111111111111111111111111111111111111111111111111111111111110000000000000000000000000000111011111111111111111111111111111111000000000000000000000000000001111111111111111111111111111111111100000000000000000000000000000010 7
b1111111111111111111111111111111111111111111111111111111111111111111111111111111111111111111111110000000000000000000000000000111000000000000000000000000000001010000000000000000000000000000001010000000000000000000000000000001100000000000000000000000000000010 8
b1111111111111111111111111111111111111111111111111111111111111111111111111111111111111111111111110000000000000000000000000000101100000000000000000000000000001010000000000000000000000000000001010000000000000000000000000000001100000000000000000000000000000001 9
b1010 :
b10101 ;
b1010 >
b10001010 ?
b10001000 A
b11001010 B
b111 D
b1 G

#170000
0!
0.

#175000
1!
0#
1*
b1 -
1.
00
b1000 4
b1000 5
b1111111111111111111111111111111111111111111111111111111111111111111111111111111111111111111111110000000000000000000000000000111011111111111111111111111111111111000000000000000000000000000001111111111111111111111111111111111100000000000000000000000000000010 6
b1111111111111111111111111111111111111111111111111111111111111111111111111111111111111111111111111111111111111111111111111111111100000000000000000000000000001010111111111111111111111111111111110000000000000000000000000000001111111111111111111111111111111111 7
b1111111111111111111111111111111111111111111111111111111111111111111111111111111111111111111111110000000000000000000000000000101100000000000000000000000000001010000000000000000000000000000001010000000000000000000000000000001100000000000000000000000000000001 8
b1111111111111111111111111111111111111111111111111111111111111111000000000000000000000000000011100000000000000000000000000000101100000000000000000000000000000111000000000000000000000000000001010000000000000000000000000000001000000000000000000000000000000001 9
b10101 :
b1010 ;
b111111 =
b10101 >
b10010101 ?
b10010101 A
b11010101 B
b111 D

#180000
0!
0.

#185000
1!
1$
0*
1.
11
b111 4
b1111111111111111111111111111111111111111111111111111111111111111111111111111111111111111111111111111111111111111111111111111111100000000000000000000000000001010111111111111111111111111111111110000000000000000000000000000001111111111111111111111111111111111 6
b1111111111111111111111111111111111111111111111111111111111111111111111111111111111111111111111110000000000000000000000000000101111111111111111111111111111111111000000000000000000000000000001011111111111111111111111111111111111111111111111111111111111111111 7
b1111111111111111111111111111111111111111111111111111111111111111000000000000000000000000000011100000000000000000000000000000101100000000000000000000000000000111000000000000000000000000000001010000000000000000000000000000001000000000000000000000000000000001 8
b1111111111111111111111111111111111111111111111111111111111111111000000000000000000000000000011100000000000000000000000000000101000000000000000000000000000000111000000000000000000000000000000110000000000000000000000000000001011111111111111111111111111111111 9
b1010 :
b10100 ;
b111111 <
b111110 =
b1011 >
b10001010 ?
b10001010 A
b11001010 B
b111 D
b1 F
b1 H

#190000
0!
0.

#195000
1!
0'
0)
0,
b11111111111111111111111111111111 -
1.
b110 4
b111 5
b1111111111111111111111111111111111111111111111111111111111111111111111111111111111111111111111110000000000000000000000000000101111111111111111111111111111111111000000000000000000000000000001011111111111111111111111111111111111111111111111111111111111111111 6
b1111111111111111111111111111111111111111111111111111111111111111000000000000000000000000000011101111111111111111111111111111111100000000000000000000000000000111111111111111111111111111111111111111111111111111111111111111111111111111111111111111111111111111 7
b1111111111111111111111111111111111111111111111111111111111111111000000000000000000000000000011100000000000000000000000000000101000000000000000000000000000000111000000000000000000000000000000110000000000000000000000000000001011111111111111111111111111111111 8
b1111111111111111111111111111111111111111111111111111111111111111000000000000000000000000000010110000000000000000000000000000101000000000000000000000000000000101000000000000000000000000000000111111111111111111111111111111111100000000000000000000000000000010 9
b10100 :
b101000 ;
b111110 <
b111101 =
b10101 >
b10010100 ?
b10010100 A
b11010100 B
b111 D
b1 E
b0 F

#200000
0!
0.

#205000
1!
0$
1'
1)
1,
b10 -
1.
01
b110 4
b110 5
b1111111111111111111111111111111111111111111111111111111111111111000000000000000000000000000011101111111111111111111111111111111100000000000000000000000000000111111111111111111111111111111111111111111111111111111111111111111111111111111111111111111111111111 6
b1111111111111111111111111111111111111111111111111111111111111111111111111111111111111111111111110000000000000000000000000000101011111111111111111111111111111111111111111111111111111111111111111111111111111111111111111111111111111111111111111111111111111111 7
b1111111111111111111111111111111111111111111111111111111111111111000000000000000000000000000010110000000000000000000000000000101000000000000000000000000000000101000000000000000000000000000000111111111111111111111111111111111100000000000000000000000000000010 8
b1111111111111111111111111111111100000000000000000000000000001110000000000000000000000000000010110000000000000000000000000000011100000000000000000000000000000101111111111111111111111111111111110000000000000000000000000000001100000000000000000000000000000010 9
b101000 :
b10000 ;
b111101 <
b1111011 =
b101001 >
b10101000 ?
b10101000 A
b11101000 B
b111 D
b0 E

#210000
0!
0.

#215000
1!
1$
1.
11
b101 4
b1111111111111111111111111111111111111111111111111111111111111111111111111111111111111111111111110000000000000000000000000000101011111111111111111111111111111111111111111111111111111111111111111111111111111111111111111111111111111111111111111111111111111111 6
b1111111111111111111111111111111111111111111111111111111111111111000000000000000000000000000010111111111111111111111111111111111111111111111111111111111111111111111111111111111111111111111111111111111111111111111111111111111111111111111111111111111111111111 7
b1111111111111111111111111111111100000000000000000000000000001110000000000000000000000000000010110000000000000000000000000000011100000000000000000000000000000101111111111111111111111111111111110000000000000000000000000000001100000000000000000000000000000010 8
b1111111111111111111111111111111100000000000000000000000000001110000000000000000000000000000010100000000000000000000000000000011111111111111111111111111111111111000000000000000000000000000001010000000000000000000000000000001111111111111111111111111111111111 9
b10000 :
b100000 ;
b1111011 <
b1110110 =
b10001 >
b10010000 ?
b10010000 A
b11010000 B
b111 D
b1 F
b10 H

#220000
0!
0.

#225000
1!
0'
0)
0,
b11111111111111111111111111111111 -
1.
b100 4
b101 5
b1111111111111111111111111111111111111111111111111111111111111111000000000000000000000000000010111111111111111111111111111111111111111111111111111111111111111111111111111111111111111111111111111111111111111111111111111111111111111111111111111111111111111111 6
b1111111111111111111111111111111100000000000000000000000000001110111111111111111111111111111111111111111111111111111111111111111111111111111111111111111111111111111111111111111111111111111111111111111111111111111111111111111111111111111111111111111111111111 7
b1111111111111111111111111111111100000000000000000000000000001110000000000000000000000000000010100000000000000000000000000000011111111111111111111111111111111111000000000000000000000000000001010000000000000000000000000000001111111111111111111111111111111111 8
b1111111111111111111111111111111100000000000000000000000000001011000000000000000000000000000010101111111111111111111111111111111100000000000000000000000000000111000000000000000000000000000001011111111111111111111111111111111100000000000000000000000000000011 9
b100000 :
b1000000 ;
b1110110 <
b1101101 =
b100001 >
b10100000 ?
b10100000 A
b11100000 B
b111 D
b1 E
b0 F

#230000
0!
0.

#235000
1!
0$
1'
1)
1,
b11 -
1.
01
b100 4
b100 5
b1111111111111111111111111111111100000000000000000000000000001110111111111111111111111111111111111111111111111111111111111111111111111111111111111111111111111111111111111111111111111111111111111111111111111111111111111111111111111111111111111111111111111111 6
b1111111111111111111111111111111111111111111111111111111111111111111111111111111111111111111111111111111111111111111111111111111111111111111111111111111111111111111111111111111111111111111111111111111111111111111111111111111111111111111111111111111111111111 7
b1111111111111111111111111111111100000000000000000000000000001011000000000000000000000000000010101111111111111111111111111111111100000000000000000000000000000111000000000000000000000000000001011111111111111111111111111111111100000000000000000000000000000011 8
b111000000000000000000000000000001011111111111111111111111111111111110000000000000000000000000000101000000000000000000000000000000111111111111111111111111111111111110000000000000000000000000000010100000000000000000000000000000011 9
b1000000 :
b0 ;
b1101101 <
b11011011 =
b1000001 >
b11000000 ?
b11000000 A
b11000000 B
b111 D
b0 E

#240000
0!
0.

#245000
1!
1$
1.
11
b11 4
b1111111111111111111111111111111111111111111111111111111111111111111111111111111111111111111111111111111111111111111111111111111111111111111111111111111111111111111111111111111111111111111111111111111111111111111111111111111111111111111111111111111111111111 6
b111000000000000000000000000000001011111111111111111111111111111111110000000000000000000000000000101000000000000000000000000000000111111111111111111111111111111111110000000000000000000000000000010100000000000000000000000000000011 8
b111011111111111111111111111111111111000000000000000000000000000010110000000000000000000000000000101011111111111111111111111111111111000000000000000000000000000001110000000000000000000000000000010111111111111111111111111111111111 9
b0 :
b11011011 <
b10110110 =
b1 >
b10000000 ?
b10000000 A
b11000000 B
b111 D
b1 F
b11 H

#250000
0!
0.

#255000
1!
0'
0)
0,
b11111111111111111111111111111111 -
1.
b10 4
b11 5
b111011111111111111111111111111111111000000000000000000000000000010110000000000000000000000000000101011111111111111111111111111111111000000000000000000000000000001110000000000000000000000000000010111111111111111111111111111111111 8
b1111111111111111111111111111111100000000000000000000000000001110000000000000000000000000000010111111111111111111111111111111111100000000000000000000000000001010000000000000000000000000000001111111111111111111111111111111111100000000000000000000000000000101 9
b10110110 <
b1101101 =
b1 >
b10000000 ?
b10000000 A
b11000000 B
b111 D
b1 E
b0 F

#260000
0!
0.

#265000
1!
0$
1'
1)
1,
b101 -
1.
01
b10 4
b10 5
b1111111111111111111111111111111100000000000000000000000000001110000000000000000000000000000010111111111111111111111111111111111100000000000000000000000000001010000000000000000000000000000001111111111111111111111111111111111100000000000000000000000000000101 8
b1111111111111111111111111111111100000000000000000000000000001110111111111111111111111111111111110000000000000000000000000000101100000000000000000000000000001010111111111111111111111111111111110000000000000000000000000000011100000000000000000000000000000101 9
b1101101 <
b1011011 =
b1 >
b10000000 ?
b10000000 A
b11000000 B
b111 D
b0 E

#270000
0!
0.

#275000
1!
1$
1.
11
b1 4
b1111111111111111111111111111111100000000000000000000000000001110111111111111111111111111111111110000000000000000000000000000101100000000000000000000000000001010111111111111111111111111111111110000000000000000000000000000011100000000000000000000000000000101 8
b1111111111111111111111111111111111111111111111111111111111111111000000000000000000000000000011100000000000000000000000000000101111111111111111111111111111111111000000000000000000000000000010100000000000000000000000000000011111111111111111111111111111111111 9
b1011011 <
b110110 =
b1 >
b10000000 ?
b10000000 A
b11000000 B
b111 D
b1 F
b101 H

#280000
0!
0.

#285000
1!
0'
0)
1+
0,
b11111111111111111111111111111111 -
1.
b0 4
b1 5
b1111111111111111111111111111111111111111111111111111111111111111000000000000000000000000000011100000000000000000000000000000101111111111111111111111111111111111000000000000000000000000000010100000000000000000000000000000011111111111111111111111111111111111 8
b1111111111111111111111111111111111111111111111111111111111111111000000000000000000000000000011101111111111111111111111111111111100000000000000000000000000001011000000000000000000000000000010101111111111111111111111111111111100000000000000000000000000000111 9
b110110 <
b101101 =
b1 >
b10000000 ?
b10000000 A
b11000000 B
b111 D
b1 E
b0 F

#290000
0!
0.

#295000
1!
0$
1'
1)
1+
1,
b111 -
1.
01
b0 4
b0 5
b1111111111111111111111111111111111111111111111111111111111111111000000000000000000000000000011101111111111111111111111111111111100000000000000000000000000001011000000000000000000000000000010101111111111111111111111111111111100000000000000000000000000000111 8
b1111111111111111111111111111111111111111111111111111111111111111111111111111111111111111111111110000000000000000000000000000111000000000000000000000000000001011111111111111111111111111111111110000000000000000000000000000101000000000000000000000000000000111 9
b101101 <
b11011 =
b1 >
b10000000 ?
b10000000 A
b11000000 B
b111 D
b0 E

#300000
0!
0.

#305000
1!
1$
0+
1.
11
b11111 4
b1111111111111111111111111111111111111111111111111111111111111111111111111111111111111111111111110000000000000000000000000000111000000000000000000000000000001011111111111111111111111111111111110000000000000000000000000000101000000000000000000000000000000111 8
b1111111111111111111111111111111111111111111111111111111111111111111111111111111111111111111111110000000000000000000000000000111011111111111111111111111111111111000000000000000000000000000010110000000000000000000000000000101011111111111111111111111111111111 9
b11011 <
b10110 =
b1 >
b10000000 ?
b10000000 A
b11000000 B
b111 D
b1 F
b111 H

#310000
0!
0.

#315000
1!
0'
0)
0,
b11111111111111111111111111111111 -
1.
b11110 4
b11111 5
b1111111111111111111111111111111111111111111111111111111111111111111111111111111111111111111111110000000000000000000000000000111011111111111111111111111111111111000000000000000000000000000010110000000000000000000000000000101011111111111111111111111111111111 8
b1111111111111111111111111111111111111111111111111111111111111111111111111111111111111111111111111111111111111111111111111111111100000000000000000000000000001110000000000000000000000000000010111111111111111111111111111111111100000000000000000000000000001010 9
b10110 <
b1101 =
b1 >
b10000000 ?
b10000000 A
b11000000 B
b111 D
b1 E
b0 F

#320000
0!
0.

#325000
1!
0$
1'
1)
1,
b1010 -
1.
01
b11110 4
b11110 5
b1111111111111111111111111111111111111111111111111111111111111111111111111111111111111111111111111111111111111111111111111111111100000000000000000000000000001110000000000000000000000000000010111111111111111111111111111111111100000000000000000000000000001010 8
b1111111111111111111111111111111111111111111111111111111111111111111111111111111111111111111111111111111111111111111111111111111100000000000000000000000000001110111111111111111111111111111111110000000000000000000000000000101100000000000000000000000000001010 9
b1101 <
b1011 =
b1 >
b10000000 ?
b10000000 A
b11000000 B
b111 D
b0 E

#330000
0!
0.

#335000
1!
1$
1.
11
b11101 4
b1111111111111111111111111111111111111111111111111111111111111111111111111111111111111111111111111111111111111111111111111111111100000000000000000000000000001110111111111111111111111111111111110000000000000000000000000000101100000000000000000000000000001010 8
b1111111111111111111111111111111111111111111111111111111111111111111111111111111111111111111111111111111111111111111111111111111111111111111111111111111111111111000000000000000000000000000011100000000000000000000000000000101111111111111111111111111111111111 9
b1011 <
b110 =
b1 >
b10000000 ?
b10000000 A
b11000000 B
b111 D
b1 F
b1010 H

#340000
0!
0.

#345000
1!
0'
0)
0,
b11111111111111111111111111111111 -
1.
b11100 4
b11101 5
b1111111111111111111111111111111111111111111111111111111111111111111111111111111111111111111111111111111111111111111111111111111111111111111111111111111111111111000000000000000000000000000011100000000000000000000000000000101111111111111111111111111111111111 8
b1111111111111111111111111111111111111111111111111111111111111111111111111111111111111111111111111111111111111111111111111111111111111111111111111111111111111111000000000000000000000000000011101111111111111111111111111111111100000000000000000000000000001011 9
b110 <
b101 =
b1 >
b10000000 ?
b10000000 A
b11000000 B
b111 D
b1 E
b0 F

#350000
0!
0.

#355000
1!
0$
1'
1)
1,
b1011 -
1.
01
b11100 4
b11100 5
b1111111111111111111111111111111111111111111111111111111111111111111111111111111111111111111111111111111111111111111111111111111111111111111111111111111111111111000000000000000000000000000011101111111111111111111111111111111100000000000000000000000000001011 8
b1111111111111111111111111111111111111111111111111111111111111111111111111111111111111111111111111111111111111111111111111111111111111111111111111111111111111111111111111111111111111111111111110000000000000000000000000000111000000000000000000000000000001011 9
b101 <
b11 =
b1 >
b10000000 ?
b10000000 A
b11000000 B
b111 D
b0 E

#360000
0!
0.

#365000
1!
1$
1.
11
b11011 4
b1111111111111111111111111111111111111111111111111111111111111111111111111111111111111111111111111111111111111111111111111111111111111111111111111111111111111111111111111111111111111111111111110000000000000000000000000000111000000000000000000000000000001011 8
b1111111111111111111111111111111111111111111111111111111111111111111111111111111111111111111111111111111111111111111111111111111111111111111111111111111111111111111111111111111111111111111111110000000000000000000000000000111011111111111111111111111111111111 9
b11 <
b10 =
b1 >
b10000000 ?
b10000000 A
b11000000 B
b111 D
b1 F
b1011 H

#370000
0!
0.

#375000
1!
0'
0)
0,
b11111111111111111111111111111111 -
1.
b11010 4
b11011 5
b1111111111111111111111111111111111111111111111111111111111111111111111111111111111111111111111111111111111111111111111111111111111111111111111111111111111111111111111111111111111111111111111110000000000000000000000000000111011111111111111111111111111111111 8
b1111111111111111111111111111111111111111111111111111111111111111111111111111111111111111111111111111111111111111111111111111111111111111111111111111111111111111111111111111111111111111111111111111111111111111111111111111111100000000000000000000000000001110 9
b10 <
b1 =
b1 >
b10000000 ?
b10000000 A
b11000000 B
b111 D
b1 E
b0 F

#380000
0!
0.

#385000
1!
0$
1'
1)
1,
b1110 -
1.
01
b11010 4
b11010 5
b1111111111111111111111111111111111111111111111111111111111111111111111111111111111111111111111111111111111111111111111111111111111111111111111111111111111111111111111111111111111111111111111111111111111111111111111111111111100000000000000000000000000001110 8
b1111111111111111111111111111111111111111111111111111111111111111111111111111111111111111111111111111111111111111111111111111111111111111111111111111111111111111111111111111111111111111111111111111111111111111111111111111111100000000000000000000000000001110 9
b1 <
b1 =
b1 >
b10000000 ?
b10000000 A
b11000000 B
b111 D
b0 E

#390000
0!
0.

